%YAML 1.1
%TAG !u! tag:unity3d.com,2011:
--- !u!1001 &6048047131585927142
PrefabInstance:
  m_ObjectHideFlags: 0
  serializedVersion: 2
  m_Modification:
    m_TransformParent: {fileID: 0}
    m_Modifications:
    - target: {fileID: 6416583103404321128, guid: 895da7f53492adc46a2f929f13cefb31,
        type: 3}
      propertyPath: m_Materials.Array.data[0]
      value: 
      objectReference: {fileID: 2100000, guid: 56ff16f2a183e8b40922a509c9e90177, type: 2}
    - target: {fileID: 6416583103880499877, guid: 895da7f53492adc46a2f929f13cefb31,
        type: 3}
      propertyPath: m_Materials.Array.data[0]
      value: 
      objectReference: {fileID: 2100000, guid: fa3e8a28035684f47853db179a73401d, type: 2}
    - target: {fileID: 6416583103966533604, guid: 895da7f53492adc46a2f929f13cefb31,
        type: 3}
      propertyPath: m_LocalPosition.x
      value: -3.564495
      objectReference: {fileID: 0}
    - target: {fileID: 6416583103966533604, guid: 895da7f53492adc46a2f929f13cefb31,
        type: 3}
      propertyPath: m_LocalPosition.y
      value: -13.482338
      objectReference: {fileID: 0}
    - target: {fileID: 6416583103966533604, guid: 895da7f53492adc46a2f929f13cefb31,
        type: 3}
      propertyPath: m_LocalPosition.z
      value: 3.6368046
      objectReference: {fileID: 0}
    - target: {fileID: 6416583103966533604, guid: 895da7f53492adc46a2f929f13cefb31,
        type: 3}
      propertyPath: m_LocalRotation.x
      value: -0
      objectReference: {fileID: 0}
    - target: {fileID: 6416583103966533604, guid: 895da7f53492adc46a2f929f13cefb31,
        type: 3}
      propertyPath: m_LocalRotation.y
      value: -0
      objectReference: {fileID: 0}
    - target: {fileID: 6416583103966533604, guid: 895da7f53492adc46a2f929f13cefb31,
        type: 3}
      propertyPath: m_LocalRotation.z
      value: -0
      objectReference: {fileID: 0}
    - target: {fileID: 6416583103966533604, guid: 895da7f53492adc46a2f929f13cefb31,
        type: 3}
      propertyPath: m_LocalRotation.w
      value: 1
      objectReference: {fileID: 0}
    - target: {fileID: 6416583103966533604, guid: 895da7f53492adc46a2f929f13cefb31,
        type: 3}
      propertyPath: m_RootOrder
      value: 0
      objectReference: {fileID: 0}
    - target: {fileID: 6416583103966533604, guid: 895da7f53492adc46a2f929f13cefb31,
        type: 3}
      propertyPath: m_LocalEulerAnglesHint.x
      value: 0
      objectReference: {fileID: 0}
    - target: {fileID: 6416583103966533604, guid: 895da7f53492adc46a2f929f13cefb31,
        type: 3}
      propertyPath: m_LocalEulerAnglesHint.y
      value: 0
      objectReference: {fileID: 0}
    - target: {fileID: 6416583103966533604, guid: 895da7f53492adc46a2f929f13cefb31,
        type: 3}
      propertyPath: m_LocalEulerAnglesHint.z
      value: 0
      objectReference: {fileID: 0}
    - target: {fileID: 6416583103966533611, guid: 895da7f53492adc46a2f929f13cefb31,
        type: 3}
      propertyPath: m_Name
      value: ice_dice
      objectReference: {fileID: 0}
    - target: {fileID: 6416583104214713360, guid: 895da7f53492adc46a2f929f13cefb31,
        type: 3}
      propertyPath: m_Materials.Array.data[0]
      value: 
      objectReference: {fileID: 2100000, guid: 0ddf7e16b198d3c4caac047f683d7a1c, type: 2}
    - target: {fileID: 6416583104562153662, guid: 895da7f53492adc46a2f929f13cefb31,
        type: 3}
      propertyPath: m_Materials.Array.data[0]
      value: 
      objectReference: {fileID: 2100000, guid: 56ff16f2a183e8b40922a509c9e90177, type: 2}
    - target: {fileID: 6416583105013323055, guid: 895da7f53492adc46a2f929f13cefb31,
        type: 3}
      propertyPath: m_Materials.Array.data[0]
      value: 
      objectReference: {fileID: 2100000, guid: 0ddf7e16b198d3c4caac047f683d7a1c, type: 2}
    - target: {fileID: 6416583105332513179, guid: 895da7f53492adc46a2f929f13cefb31,
        type: 3}
      propertyPath: m_Materials.Array.data[0]
      value: 
      objectReference: {fileID: 2100000, guid: fa3e8a28035684f47853db179a73401d, type: 2}
    m_RemovedComponents: []
  m_SourcePrefab: {fileID: 100100000, guid: 895da7f53492adc46a2f929f13cefb31, type: 3}
